1,Potatoes,1,"<p>Aliquam sapien mauris, pharetra consequat hendrerit nec, tincidunt id ligula. Pellentesque at odio ac nunc aliquet eleifend. In tincidunt efficitur fermentum. Etiam sed urna nulla. Curabitur suscipit commodo aliquet. Curabitur ac leo convallis, iaculis diam sed, finibus odio. Curabitur vitae est egestas, dignissim mi sed, bibendum ipsum.</p>",1,1,,0,017a733f-07c0-431d-94e0-4f0420d53dab,7be7e83c-fe79-48e6-a2fb-8e535f41aae0
2,Carrots,1,"<p>Aliquam et metus augue. Cras lacinia congue hendrerit. Curabitur nec sem non tellus faucibus bibendum. Integer nulla justo, convallis sit amet aliquet nec, interdum vitae quam. Vestibulum luctus neque ac pellentesque pretium. Sed gravida tellus et condimentum eleifend. Phasellus non dolor sed nulla efficitur consequat nec vitae erat.&nbsp;</p>",3,1,,0,739eb1a7-0475-4aeb-8154-3a8333980c0c,96f1e3a3-8fc2-463f-87c7-143c55dafbf9
3,Apricot,1,"<p>Vivamus at tellus eget augue convallis lobortis. Sed enim velit, laoreet nec porttitor ac, tempor luctus ipsum. Proin euismod erat est, vitae efficitur ipsum ullamcorper vitae. Fusce a ultricies lorem, a porta arcu. Pellentesque ut dictum velit, commodo dapibus dolor. Etiam laoreet mauris convallis erat dictum gravida. Ut auctor lacus non massa eleifend fringilla. Praesent a tellus maximus, fermentum justo ut, volutpat sapien.</p>",9,0,,0,8d3421bb-a092-476d-9ad3-d5d24c375e40,2ceddc4a-a3d0-420a-b5c4-b315f3b72cc1
4,Cherry,1,"<p>Etiam lectus ipsum, mattis ac dictum ac, pellentesque ac nisl. Quisque sagittis dictum turpis vitae ullamcorper. Duis malesuada enim diam, quis vehicula tortor ultrices quis. Maecenas nibh mauris, ultricies at ultrices et, viverra at libero. Nulla non malesuada ante. Nunc sed nisl nulla. Integer iaculis sed velit vel porta.</p>",10,1,,1,8e717cb7-7fa6-4e36-a2a2-2538cea91601,9b1804f2-1599-4c29-9bd0-537b087c7316
5,Radish,1,"<p>Maecenas pretium elementum convallis. Phasellus feugiat convallis nulla ut suscipit. Integer urna nunc, varius at nisi eget, egestas interdum sapien. Cras volutpat porta elit, in ultrices mi mollis sed. Praesent elementum sodales feugiat.</p>",6,0,,0,a984d746-cb0a-4068-a5eb-fff7acca9111,d040e8d8-afe0-4ea2-bbea-9dae934c2e7a
6,Beets,1,"<p>Vivamus bibendum, lectus at finibus pharetra, lectus elit mattis enim, eu euismod lorem tellus lobortis neque. Phasellus vestibulum arcu eget est tincidunt cursus. Sed porttitor fermentum dignissim. Vestibulum hendrerit dui eget libero malesuada, et pharetra mauris iaculis. Ut ac eros sed ipsum dignissim volutpat ac iaculis ante.</p>",2,1,"Contains vitamins K, C, B6р",0,b10e0bb2-2e0c-4876-80e1-2e639faa3a92,83e7217a-f6ba-46a6-89f4-aa06b869b2c1
7,Parsley,1,"<p>Aenean est odio, sollicitudin id erat in, efficitur porttitor purus. Etiam ut egestas massa, vitae dictum neque. Nulla euismod sodales neque quis interdum. Quisque efficitur convallis turpis ac varius. Duis et condimentum magna, venenatis hendrerit diam. Proin iaculis id quam vitae condimentum. Ut ac leo malesuada, volutpat lorem at, commodo lacus.</p>",5,1,,0,be0a063d-cfa3-403d-8cd5-1f034972d35c,8bdf4dc3-5e40-41f6-9f30-1ed4e70a5625
8,Apples,1,"<p>Lorem ipsum dolor sit amet, consectetur adipiscing elit. Cras urna mauris, vestibulum eu pretium quis, rhoncus in arcu. Phasellus mattis augue semper sem imperdiet, ac commodo est blandit. Nulla sed ipsum massa. Ut placerat mauris vel nisl lobortis, feugiat luctus dui blandit. In urna nunc, laoreet sed augue quis, tincidunt iaculis nulla. Donec urna tellus, elementum vitae libero ut, eleifend fermentum enim. Vivamus vestibulum placerat nisl, ac vehicula mauris feugiat nec.</p>",8,1,,1,c0f09ef2-22b2-4131-a822-0562fa7f02c6,c2f65433-ef6e-4582-86c5-e3b333bf3ba4
9,Celery,1,"<p>Etiam lacinia molestie feugiat. Nullam id libero eget ligula sagittis pharetra. Cras congue nisl in gravida volutpat. Mauris tristique purus risus, sed imperdiet est imperdiet eget. Duis aliquam mauris non scelerisque ultrices.</p>",4,0,,0,ed2fcea9-39ec-4ae2-9469-c5eb417023a7,01ae38f4-43e4-4fc7-9708-29e0d36ef7d4
10,Radishes,1,"<p>Cum sociis natoque penatibus et magnis dis parturient montes, nascetur ridiculus mus. Ut est sem, pellentesque placerat nisi eu, dignissim imperdiet orci. Quisque purus tellus, tincidunt sed placerat sollicitudin, varius in lorem. Donec molestie sapien eget ornare commodo. Pellentesque non velit facilisis, sagittis urna lobortis, blandit nibh.</p>",7,1,,0,f41ec5f0-df4f-46d4-b179-16be4dbcb745,23a36313-fc37-4ba6-8a77-7eb7d30ed818
